{
  "cordova-plugin-whitelist": {
    "source": {
      "type": "registry",
      "id": "cordova-plugin-whitelist@1.3.3"
    },
    "is_top_level": true,
    "variables": {}
  },
  "cordova-plugin-statusbar": {
    "source": {
      "type": "registry",
      "id": "cordova-plugin-statusbar@2.4.2"
    },
    "is_top_level": true,
    "variables": {}
  },
  "cordova-plugin-device": {
    "source": {
      "type": "registry",
      "id": "cordova-plugin-device@2.0.2"
    },
    "is_top_level": true,
    "variables": {}
  },
  "cordova-plugin-splashscreen": {
    "source": {
      "type": "registry",
      "id": "cordova-plugin-splashscreen@5.0.2"
    },
    "is_top_level": true,
    "variables": {}
  },
  "cordova-plugin-ionic-keyboard": {
    "source": {
      "type": "registry",
      "id": "cordova-plugin-ionic-keyboard@^2.0.5"
    },
    "is_top_level": true,
    "variables": {}
  },
  "cordova-support-google-services": {
    "source": {
      "type": "registry",
      "id": "cordova-support-google-services@^1.1.0"
    },
    "is_top_level": true,
    "variables": {}
  },
  "phonegap-plugin-multidex": {
    "source": {
      "type": "registry",
      "id": "phonegap-plugin-multidex@~1.0.0"
    },
    "is_top_level": false,
    "variables": {}
  },
  "phonegap-plugin-push": {
    "source": {
      "type": "registry",
      "id": "phonegap-plugin-push@2.2.3"
    },
    "is_top_level": true,
    "variables": {}
  },
  "cordova-plugin-googlemaps": {
    "source": {
      "type": "registry",
      "id": "cordova-plugin-googlemaps"
    },
    "is_top_level": true,
    "variables": {
      "API_KEY_FOR_ANDROID": "AIzaSyCmSXnoBBGekErvqBvu5N7dbeqdH1pHp7c",
      "API_KEY_FOR_IOS": "AIzaSyCmSXnoBBGekErvqBvu5N7dbeqdH1pHp7c"
    }
  },
  "cordova-plugin-geolocation": {
    "source": {
      "type": "registry",
      "id": "cordova-plugin-geolocation@4.0.1"
    },
    "is_top_level": true,
    "variables": {
      "GEOLOCATION_USAGE_DESCRIPTION": "To locate you"
    }
  },
  "cordova-sms-plugin": {
    "source": {
      "type": "registry",
      "id": "cordova-sms-plugin"
    },
    "is_top_level": true,
    "variables": {}
  },
  "cordova-plugin-network-information": {
    "source": {
      "type": "registry",
      "id": "cordova-plugin-network-information"
    },
    "is_top_level": true,
    "variables": {}
  },
  "cordova-plugin-x-socialsharing": {
    "source": {
      "type": "registry",
      "id": "cordova-plugin-x-socialsharing"
    },
    "is_top_level": true,
    "variables": {}
  },
  "es6-promise-plugin": {
    "source": {
      "type": "registry",
      "id": "es6-promise-plugin@^4.1.0"
    },
    "is_top_level": false,
    "variables": {}
  },
  "cordova-plugin-tts": {
    "source": {
      "type": "registry",
      "id": "cordova-plugin-tts"
    },
    "is_top_level": true,
    "variables": {}
  },
  "cordova-plugin-ionic": {
    "source": {
      "type": "registry",
      "id": "cordova-plugin-ionic@^5.2.7"
    },
    "is_top_level": true,
    "variables": {
      "APP_ID": "501b929f",
      "CHANNEL_NAME": "Master",
      "UPDATE_METHOD": "auto",
      "UPDATE_API": "https://api.ionicjs.com",
      "MAX_STORE": "2",
      "MIN_BACKGROUND_DURATION": "30"
    }
  },
  "cordova-plugin-ionic-webview": {
    "source": {
      "type": "registry",
      "id": "cordova-plugin-ionic-webview@2.1.4"
    },
    "is_top_level": true,
    "variables": {}
  },
  "cordova-plugin-file": {
    "source": {
      "type": "registry",
      "id": "cordova-plugin-file@^6.0.1"
    },
    "is_top_level": false,
    "variables": {}
  },
  "cordova-plugin-file-transfer": {
    "source": {
      "type": "registry",
      "id": "cordova-plugin-file-transfer@^1.7.1"
    },
    "is_top_level": true,
    "variables": {}
  },
  "cordova-plugin-nativegeocoder": {
    "source": {
      "type": "registry",
      "id": "cordova-plugin-nativegeocoder"
    },
    "is_top_level": true,
    "variables": {}
  },
  "cordova-plugin-camera": {
    "source": {
      "type": "registry",
      "id": "cordova-plugin-camera@4.0.3"
    },
    "is_top_level": true,
    "variables": {}
  },
  "cordova-plugin-filepath": {
    "source": {
      "type": "registry",
      "id": "cordova-plugin-filepath"
    },
    "is_top_level": true,
    "variables": {}
  },
  "cordova-plugin-inappbrowser": {
    "source": {
      "type": "registry",
      "id": "cordova-plugin-inappbrowser@3.0.0"
    },
    "is_top_level": true,
    "variables": {}
  },
  "cordova-plugin-networkinterface": {
    "source": {
      "type": "registry",
      "id": "cordova-plugin-networkinterface"
    },
    "is_top_level": true,
    "variables": {}
  },
  "cordova-plugin-appversion": {
    "source": {
      "type": "registry",
      "id": "cordova-plugin-appversion@1.0.0"
    },
    "is_top_level": false,
    "variables": {}
  },
  "cordova-plugin-app-version": {
    "source": {
      "type": "registry",
      "id": "cordova-plugin-app-version"
    },
    "is_top_level": true,
    "variables": {}
  },
  "mx.ferreyra.callnumber": {
    "source": {
      "type": "registry",
      "id": "call-number"
    },
    "is_top_level": true,
    "variables": {}
  },
  "cordova-plugin-android-permissions": {
    "source": {
      "type": "registry",
      "id": "cordova-plugin-android-permissions"
    },
    "is_top_level": true,
    "variables": {}
  },
  "cordova-plugin-screen-orientation": {
    "source": {
      "type": "registry",
      "id": "cordova-plugin-screen-orientation"
    },
    "is_top_level": true,
    "variables": {}
  }
}